{
  "대표카드번호": "BB0000000536",
  "회사코드": "01",
  "사업부": "M",
  "매장코드": "MA1001",
  "구매일자": "20180401",
  "구매번호": "00012",
  "구매순번": "00001",
  "판매구분": "B",
  "스타일": "MROASUMXXXX",
  "색상": "56",
  "규격": "095",
  "구매수량": 1,
  "구매금액": 49500,
  "사용마일리지": 0,
  "적립마일리지": 0
}